20131130 103 128 
20131201 79 117 
20131203 103 105 
20140107 123 158 
20140128 17 85 
20140319 17 39 
20140320 31 45 
20140322 16 44 
20140323 17 34 
20140331 15 21 
20140828 220 222 
20140905 89 99 
20140918 235 254 
20140919 166 172 
20140924 166 181 199 208 
20141020 18 105 
20141021 111 162 
20141022 173 231 
20141023 53 89 112 132 
20141024 105 191 
20141025 161 196 218 249 
20141026 28 89 106 115 
20141027 101 189 
20141031 179 215 
20141115 122 162 
20141124 180 210 
20141201 90 91 
20141211 90 102 
20141213 109 110 
20141214 87 90 153 153 
20141215 103 116 
20150111 44 96 
20150112 51 76 
20150113 83 110 
20150120 54 56 
20150123 44 52 
20150207 18 18 
20150215 14 36 
20150307 17 38 
20150311 30 37 
20150312 18 35 
20150313 33 33 
20150317 19 35 
20150923 148 173 
20150924 144 172 
20150925 143 167 
20151010 110 110 
20151018 107 115 
20151019 139 164 
20151107 164 176 
20151108 188 201 
20151111 149 170 
20151112 152 175 
20151114 173 201 
20151203 106 113 
20151204 86 117 
20151208 43 56 
20151209 100 172 
20151215 66 102 
20160108 22 22 
20160112 58 80 
20160115 13 26 
20160126 20 41 
20160129 18 22 
20160201 11 58 
20160202 51 98 
20160204 64 95 
20160205 47 90 
20160206 82 96 
20160208 62 83 
20160228 26 34 
20160301 17 60 
20160303 17 59 
20160306 42 48 
20160312 23 39